<?xml version="1.0" encoding="UTF-8" standalone="no"?>
<!DOCTYPE svg PUBLIC "-//W3C//DTD SVG 1.1//EN"
 "http://www.w3.org/Graphics/SVG/1.1/DTD/svg11.dtd">
<!-- Generated by graphviz version 2.50.0 (20211204.2007)
 -->
<!-- Pages: 1 -->
<svg width="1165pt" height="365pt"
 viewBox="0.00 0.00 1165.00 365.00" xmlns="http://www.w3.org/2000/svg" xmlns:xlink="http://www.w3.org/1999/xlink">
<g id="graph0" class="graph" transform="scale(1 1) rotate(0) translate(4 361)">
<polygon fill="white" stroke="transparent" points="-4,4 -4,-361 1161,-361 1161,4 -4,4"/>
<g id="clust1" class="cluster">
<title>cluster</title>
<polygon fill="#234178" fill-opacity="0.184314" stroke="black" points="8,-8 8,-349 1149,-349 1149,-8 8,-8"/>
<text text-anchor="middle" x="578.5" y="-333.8" font-family="Times,serif" font-size="14.00">Global</text>
</g>
<g id="clust3" class="cluster">
<title>cluster_2</title>
<polygon fill="#234178" fill-opacity="0.184314" stroke="black" points="499,-187 499,-274 579,-274 579,-187 499,-187"/>
<text text-anchor="middle" x="539" y="-258.8" font-family="Times,serif" font-size="14.00">System</text>
</g>
<!-- Logger_0_6097416426442070905_1 -->
<g id="node1" class="node">
<title>Logger_0_6097416426442070905_1</title>
<g id="a_node1"><a xlink:href="morph://MorpheusModel/Analysis/Logger" xlink:title="&lt;TABLE&gt;">
<polygon fill="#fffea3" stroke="transparent" points="559,-87 429,-87 429,-16 559,-16 559,-87"/>
<text text-anchor="start" x="470.5" y="-70.5" font-family="times" font-size="15.00">Logger</text>
<text text-anchor="start" x="433" y="-48.5" font-family="times" font-style="italic" font-size="15.00">&quot;chemical profiles&quot;</text>
<text text-anchor="start" x="489.5" y="-24.5" font-family="times" font-size="15.00">1</text>
<polygon fill="black" stroke="black" points="429,-39.5 429,-39.5 559,-39.5 559,-39.5 429,-39.5"/>
<polygon fill="none" stroke="black" points="429,-16 429,-87 559,-87 559,-16 429,-16"/>
</a>
</g>
</g>
<!-- E_0 -->
<g id="node2" class="node">
<title>E_0</title>
<g id="a_node2"><a xlink:href="morph://MorpheusModel/Global/Field[2]" xlink:title="E">
<ellipse fill="#d3d247" stroke="black" cx="306" cy="-141" rx="27" ry="18"/>
<text text-anchor="middle" x="306" y="-137.3" font-family="Times,serif" font-size="14.00">E</text>
</a>
</g>
</g>
<!-- E_0&#45;&gt;Logger_0_6097416426442070905_1 -->
<g id="edge3" class="edge">
<title>E_0&#45;&gt;Logger_0_6097416426442070905_1</title>
<path fill="none" stroke="#112c5f" stroke-width="2" d="M327.31,-129.91C332.14,-127.63 337.24,-125.23 342,-123 367.23,-111.19 394.86,-98.35 419.55,-86.91"/>
<polygon fill="#112c5f" stroke="#112c5f" stroke-width="2" points="421.26,-89.97 428.86,-82.59 418.32,-83.62 421.26,-89.97"/>
</g>
<!-- E0_0 -->
<g id="node3" class="node">
<title>E0_0</title>
<g id="a_node3"><a xlink:href="morph://MorpheusModel/Global/Constant[11]" xlink:title="E0">
<ellipse fill="#d3d247" stroke="black" cx="1114" cy="-300" rx="27" ry="18"/>
<text text-anchor="middle" x="1114" y="-296.3" font-family="Times,serif" font-size="14.00">E0</text>
</a>
</g>
</g>
<!-- System_2_0_00375 -->
<g id="node26" class="node">
<title>System_2_0_00375</title>
<g id="a_node26"><a xlink:href="morph://MorpheusModel/Global/System" xlink:title="&lt;TABLE&gt;">
<polygon fill="#fffea3" stroke="transparent" points="570.5,-243 507.5,-243 507.5,-195 570.5,-195 570.5,-243"/>
<text text-anchor="start" x="514" y="-227" font-family="times" font-size="15.00">System</text>
<text text-anchor="start" x="512" y="-204" font-family="times" font-size="15.00">0.00375</text>
<polygon fill="black" stroke="black" points="508,-219 508,-219 571,-219 571,-219 508,-219"/>
<polygon fill="none" stroke="black" points="507.5,-195 507.5,-243 570.5,-243 570.5,-195 507.5,-195"/>
</a>
</g>
</g>
<!-- E0_0&#45;&gt;System_2_0_00375 -->
<g id="edge1" class="edge">
<title>E0_0&#45;&gt;System_2_0_00375</title>
<path fill="none" stroke="#112c5f" stroke-width="2" d="M1093.51,-287.92C1088.55,-285.63 1083.18,-283.48 1078,-282 898.07,-230.68 672.86,-221.67 580.96,-220.21"/>
<polygon fill="#112c5f" stroke="#112c5f" stroke-width="2" points="580.73,-216.71 570.68,-220.07 580.63,-223.71 580.73,-216.71"/>
</g>
<!-- ECM_0 -->
<g id="node4" class="node">
<title>ECM_0</title>
<g id="a_node4"><a xlink:href="morph://MorpheusModel/Global/Field[6]" xlink:title="ECM">
<ellipse fill="#d3d247" stroke="black" cx="382" cy="-141" rx="30.59" ry="18"/>
<text text-anchor="middle" x="382" y="-137.3" font-family="Times,serif" font-size="14.00">ECM</text>
</a>
</g>
</g>
<!-- ECM_0&#45;&gt;Logger_0_6097416426442070905_1 -->
<g id="edge2" class="edge">
<title>ECM_0&#45;&gt;Logger_0_6097416426442070905_1</title>
<path fill="none" stroke="#112c5f" stroke-width="2" d="M399.99,-125.94C411.26,-117.14 426.42,-105.3 441.27,-93.69"/>
<polygon fill="#112c5f" stroke="#112c5f" stroke-width="2" points="443.74,-96.21 449.46,-87.29 439.43,-90.69 443.74,-96.21"/>
</g>
<!-- GammaE_0 -->
<g id="node5" class="node">
<title>GammaE_0</title>
<g id="a_node5"><a xlink:href="morph://MorpheusModel/Global/Constant[3]" xlink:title="GammaE">
<ellipse fill="#d3d247" stroke="black" cx="1024" cy="-300" rx="44.69" ry="18"/>
<text text-anchor="middle" x="1024" y="-296.3" font-family="Times,serif" font-size="14.00">GammaE</text>
</a>
</g>
</g>
<!-- GammaE_0&#45;&gt;System_2_0_00375 -->
<g id="edge4" class="edge">
<title>GammaE_0&#45;&gt;System_2_0_00375</title>
<path fill="none" stroke="#112c5f" stroke-width="2" d="M991.11,-287.71C984.19,-285.6 976.9,-283.57 970,-282 829.2,-249.93 658.56,-231.2 581,-223.76"/>
<polygon fill="#112c5f" stroke="#112c5f" stroke-width="2" points="580.97,-220.24 570.69,-222.78 580.31,-227.21 580.97,-220.24"/>
</g>
<!-- GammaP_0 -->
<g id="node6" class="node">
<title>GammaP_0</title>
<g id="a_node6"><a xlink:href="morph://MorpheusModel/Global/Constant[4]" xlink:title="GammaP">
<ellipse fill="#d3d247" stroke="black" cx="917" cy="-300" rx="44.39" ry="18"/>
<text text-anchor="middle" x="917" y="-296.3" font-family="Times,serif" font-size="14.00">GammaP</text>
</a>
</g>
</g>
<!-- GammaP_0&#45;&gt;System_2_0_00375 -->
<g id="edge5" class="edge">
<title>GammaP_0&#45;&gt;System_2_0_00375</title>
<path fill="none" stroke="#112c5f" stroke-width="2" d="M884.05,-287.96C877.14,-285.83 869.86,-283.73 863,-282 762.73,-256.71 642.73,-236.26 580.71,-226.39"/>
<polygon fill="#112c5f" stroke="#112c5f" stroke-width="2" points="580.97,-222.89 570.54,-224.79 579.87,-229.8 580.97,-222.89"/>
</g>
<!-- GammaR_0 -->
<g id="node7" class="node">
<title>GammaR_0</title>
<g id="a_node7"><a xlink:href="morph://MorpheusModel/Global/Constant[5]" xlink:title="GammaR">
<ellipse fill="#d3d247" stroke="black" cx="809" cy="-300" rx="45.49" ry="18"/>
<text text-anchor="middle" x="809" y="-296.3" font-family="Times,serif" font-size="14.00">GammaR</text>
</a>
</g>
</g>
<!-- GammaR_0&#45;&gt;System_2_0_00375 -->
<g id="edge6" class="edge">
<title>GammaR_0&#45;&gt;System_2_0_00375</title>
<path fill="none" stroke="#112c5f" stroke-width="2" d="M774.76,-288.08C768.21,-286.03 761.4,-283.93 755,-282 694.34,-263.75 623.75,-243.71 580.22,-231.49"/>
<polygon fill="#112c5f" stroke="#112c5f" stroke-width="2" points="581.13,-228.11 570.55,-228.79 579.24,-234.85 581.13,-228.11"/>
</g>
<!-- K_0 -->
<g id="node8" class="node">
<title>K_0</title>
<g id="a_node8"><a xlink:href="morph://MorpheusModel/Global/Constant[9]" xlink:title="K">
<ellipse fill="#d3d247" stroke="black" cx="719" cy="-300" rx="27" ry="18"/>
<text text-anchor="middle" x="719" y="-296.3" font-family="Times,serif" font-size="14.00">K</text>
</a>
</g>
</g>
<!-- K_0&#45;&gt;System_2_0_00375 -->
<g id="edge7" class="edge">
<title>K_0&#45;&gt;System_2_0_00375</title>
<path fill="none" stroke="#112c5f" stroke-width="2" d="M697.74,-288.81C692.91,-286.54 687.79,-284.16 683,-282 648.45,-266.41 608.88,-249.43 579.97,-237.19"/>
<polygon fill="#112c5f" stroke="#112c5f" stroke-width="2" points="581.17,-233.9 570.6,-233.23 578.45,-240.35 581.17,-233.9"/>
</g>
<!-- P_0 -->
<g id="node9" class="node">
<title>P_0</title>
<g id="a_node9"><a xlink:href="morph://MorpheusModel/Global/Field[0]" xlink:title="P">
<ellipse fill="#d3d247" stroke="black" cx="458" cy="-141" rx="27" ry="18"/>
<text text-anchor="middle" x="458" y="-137.3" font-family="Times,serif" font-size="14.00">P</text>
</a>
</g>
</g>
<!-- P_0&#45;&gt;Logger_0_6097416426442070905_1 -->
<g id="edge10" class="edge">
<title>P_0&#45;&gt;Logger_0_6097416426442070905_1</title>
<path fill="none" stroke="#112c5f" stroke-width="2" d="M464.77,-123.54C467.98,-115.74 471.99,-106.01 475.99,-96.27"/>
<polygon fill="#112c5f" stroke="#112c5f" stroke-width="2" points="479.24,-97.58 479.8,-87 472.76,-94.92 479.24,-97.58"/>
</g>
<!-- P0_0 -->
<g id="node10" class="node">
<title>P0_0</title>
<g id="a_node10"><a xlink:href="morph://MorpheusModel/Global/Constant[7]" xlink:title="P0">
<ellipse fill="#d3d247" stroke="black" cx="647" cy="-300" rx="27" ry="18"/>
<text text-anchor="middle" x="647" y="-296.3" font-family="Times,serif" font-size="14.00">P0</text>
</a>
</g>
</g>
<!-- P0_0&#45;&gt;System_2_0_00375 -->
<g id="edge8" class="edge">
<title>P0_0&#45;&gt;System_2_0_00375</title>
<path fill="none" stroke="#112c5f" stroke-width="2" d="M629.17,-285.95C615.57,-276.01 596.32,-261.93 579.1,-249.33"/>
<polygon fill="#112c5f" stroke="#112c5f" stroke-width="2" points="580.98,-246.37 570.84,-243.29 576.84,-252.02 580.98,-246.37"/>
</g>
<!-- PI_0 -->
<g id="node11" class="node">
<title>PI_0</title>
<g id="a_node11"><a xlink:href="morph://MorpheusModel/Global/Field[4]" xlink:title="PI">
<ellipse fill="#d3d247" stroke="black" cx="530" cy="-141" rx="27" ry="18"/>
<text text-anchor="middle" x="530" y="-137.3" font-family="Times,serif" font-size="14.00">PI</text>
</a>
</g>
</g>
<!-- PI_0&#45;&gt;Logger_0_6097416426442070905_1 -->
<g id="edge9" class="edge">
<title>PI_0&#45;&gt;Logger_0_6097416426442070905_1</title>
<path fill="none" stroke="#112c5f" stroke-width="2" d="M523.23,-123.54C520.02,-115.74 516.01,-106.01 512.01,-96.27"/>
<polygon fill="#112c5f" stroke="#112c5f" stroke-width="2" points="515.24,-94.92 508.2,-87 508.76,-97.58 515.24,-94.92"/>
</g>
<!-- R_0 -->
<g id="node12" class="node">
<title>R_0</title>
<g id="a_node12"><a xlink:href="morph://MorpheusModel/Global/Field[1]" xlink:title="R">
<ellipse fill="#d3d247" stroke="black" cx="602" cy="-141" rx="27" ry="18"/>
<text text-anchor="middle" x="602" y="-137.3" font-family="Times,serif" font-size="14.00">R</text>
</a>
</g>
</g>
<!-- R_0&#45;&gt;Logger_0_6097416426442070905_1 -->
<g id="edge13" class="edge">
<title>R_0&#45;&gt;Logger_0_6097416426442070905_1</title>
<path fill="none" stroke="#112c5f" stroke-width="2" d="M585.12,-126.33C574.21,-117.49 559.38,-105.47 544.85,-93.7"/>
<polygon fill="#112c5f" stroke="#112c5f" stroke-width="2" points="546.81,-90.78 536.84,-87.21 542.41,-96.22 546.81,-90.78"/>
</g>
<!-- R0_0 -->
<g id="node13" class="node">
<title>R0_0</title>
<g id="a_node13"><a xlink:href="morph://MorpheusModel/Global/Constant[6]" xlink:title="R0">
<ellipse fill="#d3d247" stroke="black" cx="575" cy="-300" rx="27" ry="18"/>
<text text-anchor="middle" x="575" y="-296.3" font-family="Times,serif" font-size="14.00">R0</text>
</a>
</g>
</g>
<!-- R0_0&#45;&gt;System_2_0_00375 -->
<g id="edge11" class="edge">
<title>R0_0&#45;&gt;System_2_0_00375</title>
<path fill="none" stroke="#112c5f" stroke-width="2" d="M567.54,-282.63C563.57,-273.91 558.54,-262.87 553.81,-252.49"/>
<polygon fill="#112c5f" stroke="#112c5f" stroke-width="2" points="556.92,-250.89 549.59,-243.24 550.55,-253.79 556.92,-250.89"/>
</g>
<!-- RI_0 -->
<g id="node14" class="node">
<title>RI_0</title>
<g id="a_node14"><a xlink:href="morph://MorpheusModel/Global/Field[3]" xlink:title="RI">
<ellipse fill="#d3d247" stroke="black" cx="674" cy="-141" rx="27" ry="18"/>
<text text-anchor="middle" x="674" y="-137.3" font-family="Times,serif" font-size="14.00">RI</text>
</a>
</g>
</g>
<!-- RI_0&#45;&gt;Logger_0_6097416426442070905_1 -->
<g id="edge12" class="edge">
<title>RI_0&#45;&gt;Logger_0_6097416426442070905_1</title>
<path fill="none" stroke="#112c5f" stroke-width="2" d="M652.64,-129.62C631.8,-119.49 598.86,-103.47 568.38,-88.66"/>
<polygon fill="#112c5f" stroke="#112c5f" stroke-width="2" points="569.54,-85.33 559.02,-84.11 566.48,-91.63 569.54,-85.33"/>
</g>
<!-- bR_0 -->
<g id="node15" class="node">
<title>bR_0</title>
<g id="a_node15"><a xlink:href="morph://MorpheusModel/Global/Constant[0]" xlink:title="bR">
<ellipse fill="#d3d247" stroke="black" cx="503" cy="-300" rx="27" ry="18"/>
<text text-anchor="middle" x="503" y="-296.3" font-family="Times,serif" font-size="14.00">bR</text>
</a>
</g>
</g>
<!-- bR_0&#45;&gt;System_2_0_00375 -->
<g id="edge21" class="edge">
<title>bR_0&#45;&gt;System_2_0_00375</title>
<path fill="none" stroke="#112c5f" stroke-width="2" d="M510.46,-282.63C514.43,-273.91 519.46,-262.87 524.19,-252.49"/>
<polygon fill="#112c5f" stroke="#112c5f" stroke-width="2" points="527.45,-253.79 528.41,-243.24 521.08,-250.89 527.45,-253.79"/>
</g>
<!-- delta_0 -->
<g id="node16" class="node">
<title>delta_0</title>
<g id="a_node16"><a xlink:href="morph://MorpheusModel/Global/Constant[1]" xlink:title="delta">
<ellipse fill="#d3d247" stroke="black" cx="430" cy="-300" rx="27.9" ry="18"/>
<text text-anchor="middle" x="430" y="-296.3" font-family="Times,serif" font-size="14.00">delta</text>
</a>
</g>
</g>
<!-- delta_0&#45;&gt;System_2_0_00375 -->
<g id="edge22" class="edge">
<title>delta_0&#45;&gt;System_2_0_00375</title>
<path fill="none" stroke="#112c5f" stroke-width="2" d="M451.59,-288.13C456.57,-285.89 461.9,-283.7 467,-282 482.96,-276.68 490.16,-283.56 504,-274 512.1,-268.41 518.77,-260.26 524.04,-251.99"/>
<polygon fill="#112c5f" stroke="#112c5f" stroke-width="2" points="527.22,-253.49 529.2,-243.08 521.16,-249.98 527.22,-253.49"/>
</g>
<!-- dx_0 -->
<g id="node17" class="node">
<title>dx_0</title>
<ellipse fill="#d3d247" stroke="black" cx="216" cy="-219" rx="27" ry="18"/>
<text text-anchor="middle" x="216" y="-215.3" font-family="Times,serif" font-size="14.00">dx</text>
</g>
<!-- x_0 -->
<g id="node25" class="node">
<title>x_0</title>
<g id="a_node25"><a xlink:href="morph://MorpheusModel/Global/Function" xlink:title="x">
<ellipse fill="#d3d247" stroke="black" cx="216" cy="-141" rx="27" ry="18"/>
<text text-anchor="middle" x="216" y="-137.3" font-family="Times,serif" font-size="14.00">x</text>
</a>
</g>
</g>
<!-- dx_0&#45;&gt;x_0 -->
<g id="edge23" class="edge">
<title>dx_0&#45;&gt;x_0</title>
<path fill="none" stroke="#112c5f" stroke-width="2" d="M216,-200.75C216,-191.52 216,-179.93 216,-169.49"/>
<polygon fill="#112c5f" stroke="#112c5f" stroke-width="2" points="219.5,-169.18 216,-159.18 212.5,-169.18 219.5,-169.18"/>
</g>
<!-- epsilon_0 -->
<g id="node18" class="node">
<title>epsilon_0</title>
<g id="a_node18"><a xlink:href="morph://MorpheusModel/Global/Constant[8]" xlink:title="epsilon">
<ellipse fill="#d3d247" stroke="black" cx="348" cy="-300" rx="36.29" ry="18"/>
<text text-anchor="middle" x="348" y="-296.3" font-family="Times,serif" font-size="14.00">epsilon</text>
</a>
</g>
</g>
<!-- epsilon_0&#45;&gt;System_2_0_00375 -->
<g id="edge24" class="edge">
<title>epsilon_0&#45;&gt;System_2_0_00375</title>
<path fill="none" stroke="#112c5f" stroke-width="2" d="M374.74,-287.45C380.66,-285.31 386.96,-283.33 393,-282 417.15,-276.69 482.71,-286.58 504,-274 512.71,-268.85 519.64,-260.59 524.95,-252.06"/>
<polygon fill="#112c5f" stroke="#112c5f" stroke-width="2" points="528.08,-253.63 529.91,-243.2 521.98,-250.21 528.08,-253.63"/>
</g>
<!-- kE_0 -->
<g id="node19" class="node">
<title>kE_0</title>
<g id="a_node19"><a xlink:href="morph://MorpheusModel/Global/Constant[2]" xlink:title="kE">
<ellipse fill="#d3d247" stroke="black" cx="267" cy="-300" rx="27" ry="18"/>
<text text-anchor="middle" x="267" y="-296.3" font-family="Times,serif" font-size="14.00">kE</text>
</a>
</g>
</g>
<!-- kE_0&#45;&gt;System_2_0_00375 -->
<g id="edge25" class="edge">
<title>kE_0&#45;&gt;System_2_0_00375</title>
<path fill="none" stroke="#112c5f" stroke-width="2" d="M287.04,-287.81C292.1,-285.47 297.63,-283.32 303,-282 324.71,-276.68 484.58,-285.06 504,-274 512.86,-268.95 519.85,-260.64 525.18,-252.03"/>
<polygon fill="#112c5f" stroke="#112c5f" stroke-width="2" points="528.36,-253.52 530.14,-243.07 522.24,-250.13 528.36,-253.52"/>
</g>
<!-- kP_0 -->
<g id="node20" class="node">
<title>kP_0</title>
<g id="a_node20"><a xlink:href="morph://MorpheusModel/Global/Constant[10]" xlink:title="kP">
<ellipse fill="#d3d247" stroke="black" cx="195" cy="-300" rx="27" ry="18"/>
<text text-anchor="middle" x="195" y="-296.3" font-family="Times,serif" font-size="14.00">kP</text>
</a>
</g>
</g>
<!-- kP_0&#45;&gt;System_2_0_00375 -->
<g id="edge26" class="edge">
<title>kP_0&#45;&gt;System_2_0_00375</title>
<path fill="none" stroke="#112c5f" stroke-width="2" d="M215.03,-287.77C220.09,-285.43 225.62,-283.29 231,-282 260.51,-274.93 477.55,-288.88 504,-274 512.89,-269 519.89,-260.7 525.22,-252.09"/>
<polygon fill="#112c5f" stroke="#112c5f" stroke-width="2" points="528.4,-253.57 530.17,-243.12 522.27,-250.18 528.4,-253.57"/>
</g>
<!-- n_0 -->
<g id="node21" class="node">
<title>n_0</title>
<g id="a_node21"><a xlink:href="morph://MorpheusModel/Global/Constant[12]" xlink:title="n">
<ellipse fill="#d3d247" stroke="black" cx="123" cy="-300" rx="27" ry="18"/>
<text text-anchor="middle" x="123" y="-296.3" font-family="Times,serif" font-size="14.00">n</text>
</a>
</g>
</g>
<!-- n_0&#45;&gt;System_2_0_00375 -->
<g id="edge27" class="edge">
<title>n_0&#45;&gt;System_2_0_00375</title>
<path fill="none" stroke="#112c5f" stroke-width="2" d="M143.02,-287.75C148.09,-285.41 153.62,-283.27 159,-282 177.66,-277.59 487.26,-283.35 504,-274 512.9,-269.03 519.91,-260.73 525.24,-252.12"/>
<polygon fill="#112c5f" stroke="#112c5f" stroke-width="2" points="528.42,-253.6 530.19,-243.15 522.29,-250.21 528.42,-253.6"/>
</g>
<!-- plotR_0 -->
<g id="node22" class="node">
<title>plotR_0</title>
<g id="a_node22"><a xlink:href="morph://MorpheusModel/Global/Field[5]" xlink:title="plotR">
<ellipse fill="#d3d247" stroke="black" cx="750" cy="-141" rx="30.59" ry="18"/>
<text text-anchor="middle" x="750" y="-137.3" font-family="Times,serif" font-size="14.00">plotR</text>
</a>
</g>
</g>
<!-- plotR_0&#45;&gt;Logger_0_6097416426442070905_1 -->
<g id="edge28" class="edge">
<title>plotR_0&#45;&gt;Logger_0_6097416426442070905_1</title>
<path fill="none" stroke="#112c5f" stroke-width="2" d="M726.02,-129.41C720.78,-127.21 715.23,-124.96 710,-123 663.57,-105.59 610.65,-88.28 568.82,-75.17"/>
<polygon fill="#112c5f" stroke="#112c5f" stroke-width="2" points="569.84,-71.82 559.25,-72.18 567.75,-78.5 569.84,-71.82"/>
</g>
<!-- space_0 -->
<g id="node23" class="node">
<title>space_0</title>
<g id="a_node23"><a xlink:href="morph://MorpheusModel/Space/SpaceSymbol" xlink:title="space">
<ellipse fill="#b5b426" stroke="black" cx="47" cy="-300" rx="30.59" ry="18"/>
<text text-anchor="middle" x="47" y="-296.3" font-family="Times,serif" font-size="14.00">space</text>
</a>
</g>
</g>
<!-- space_x_0 -->
<g id="node24" class="node">
<title>space_x_0</title>
<ellipse fill="#d3d247" stroke="black" cx="98" cy="-219" rx="37.09" ry="18"/>
<text text-anchor="middle" x="98" y="-215.3" font-family="Times,serif" font-size="14.00">space.x</text>
</g>
<!-- space_0&#45;&gt;space_x_0 -->
<g id="edge29" class="edge">
<title>space_0&#45;&gt;space_x_0</title>
<path fill="none" stroke="#38568c" stroke-dasharray="5,2" d="M57.32,-283.01C66.05,-269.49 78.52,-250.18 87.34,-236.51"/>
</g>
<!-- space_x_0&#45;&gt;x_0 -->
<g id="edge30" class="edge">
<title>space_x_0&#45;&gt;x_0</title>
<path fill="none" stroke="#112c5f" stroke-width="2" d="M119.37,-204.24C138.78,-191.74 167.51,-173.23 188.6,-159.64"/>
<polygon fill="#112c5f" stroke="#112c5f" stroke-width="2" points="190.61,-162.51 197.13,-154.16 186.82,-156.63 190.61,-162.51"/>
</g>
<!-- x_0&#45;&gt;Logger_0_6097416426442070905_1 -->
<g id="edge31" class="edge">
<title>x_0&#45;&gt;Logger_0_6097416426442070905_1</title>
<path fill="none" stroke="#112c5f" stroke-width="2" d="M240.18,-132.39C279.66,-119.96 359.54,-94.82 419.19,-76.05"/>
<polygon fill="#112c5f" stroke="#112c5f" stroke-width="2" points="420.47,-79.31 428.96,-72.97 418.37,-72.64 420.47,-79.31"/>
</g>
<!-- System_2_0_00375&#45;&gt;E_0 -->
<g id="edge15" class="edge">
<title>System_2_0_00375&#45;&gt;E_0</title>
<path fill="none" stroke="#8f100d" stroke-width="3" d="M516.19,-194.71C512.36,-191.75 508.24,-189.04 504,-187 438.14,-155.35 411.67,-181.02 342,-159 340.07,-158.39 338.12,-157.7 336.16,-156.95"/>
<polygon fill="#8f100d" stroke="#8f100d" stroke-width="3" points="337.13,-153.56 326.55,-152.87 334.39,-160 337.13,-153.56"/>
</g>
<!-- System_2_0_00375&#45;&gt;ECM_0 -->
<g id="edge14" class="edge">
<title>System_2_0_00375&#45;&gt;ECM_0</title>
<path fill="none" stroke="#8f100d" stroke-width="3" d="M515.49,-194.99C511.81,-192.06 507.93,-189.29 504,-187 470.71,-167.63 457.97,-172.76 422,-159 419.8,-158.16 417.54,-157.27 415.27,-156.36"/>
<polygon fill="#8f100d" stroke="#8f100d" stroke-width="3" points="416.58,-153.11 406,-152.53 413.91,-159.58 416.58,-153.11"/>
</g>
<!-- System_2_0_00375&#45;&gt;P_0 -->
<g id="edge17" class="edge">
<title>System_2_0_00375&#45;&gt;P_0</title>
<path fill="none" stroke="#8f100d" stroke-width="3" d="M514.26,-194.78C503.58,-184.77 491.17,-173.12 480.73,-163.33"/>
<polygon fill="#8f100d" stroke="#8f100d" stroke-width="3" points="482.88,-160.54 473.19,-156.25 478.09,-165.65 482.88,-160.54"/>
</g>
<!-- System_2_0_00375&#45;&gt;PI_0 -->
<g id="edge16" class="edge">
<title>System_2_0_00375&#45;&gt;PI_0</title>
<path fill="none" stroke="#8f100d" stroke-width="3" d="M536.25,-194.78C535.29,-186.68 534.21,-177.52 533.21,-169.12"/>
<polygon fill="#8f100d" stroke="#8f100d" stroke-width="3" points="536.67,-168.56 532.02,-159.04 529.72,-169.39 536.67,-168.56"/>
</g>
<!-- System_2_0_00375&#45;&gt;R_0 -->
<g id="edge19" class="edge">
<title>System_2_0_00375&#45;&gt;R_0</title>
<path fill="none" stroke="#8f100d" stroke-width="3" d="M558.24,-194.78C566.08,-185.33 575.12,-174.43 582.93,-165"/>
<polygon fill="#8f100d" stroke="#8f100d" stroke-width="3" points="585.74,-167.1 589.43,-157.16 580.35,-162.63 585.74,-167.1"/>
</g>
<!-- System_2_0_00375&#45;&gt;RI_0 -->
<g id="edge18" class="edge">
<title>System_2_0_00375&#45;&gt;RI_0</title>
<path fill="none" stroke="#8f100d" stroke-width="3" d="M570.65,-200.18C593.15,-187.51 623.15,-170.63 645.02,-158.31"/>
<polygon fill="#8f100d" stroke="#8f100d" stroke-width="3" points="646.86,-161.3 653.86,-153.34 643.43,-155.2 646.86,-161.3"/>
</g>
<!-- System_2_0_00375&#45;&gt;plotR_0 -->
<g id="edge20" class="edge">
<title>System_2_0_00375&#45;&gt;plotR_0</title>
<path fill="none" stroke="#8f100d" stroke-width="3" d="M570.75,-207.78C605.27,-196.5 661.93,-177.48 710,-159 712.2,-158.15 714.46,-157.26 716.72,-156.35"/>
<polygon fill="#8f100d" stroke="#8f100d" stroke-width="3" points="718.09,-159.57 726,-152.52 715.42,-153.1 718.09,-159.57"/>
</g>
</g>
</svg>
