<?xml version="1.0" encoding="UTF-8" standalone="no"?> <svg xmlns="http://www.w3.org/2000/svg" xmlns:xlink="http://www.w3.org/1999/xlink" width="2307pt" height="594pt" viewBox="0.00 0.00 2307.00 594.00">
<g id="graph0" class="graph" transform="scale(1 1) rotate(0) translate(4 590)">
<title style="">%0</title>
<polygon fill="#ffffff" stroke="transparent" points="-4,4 -4,-590 2303,-590 2303,4 -4,4" style=""></polygon>
<g id="clust1" class="cluster">
<title style="">cluster</title>
<polygon fill="#234178" fill-opacity="0.184314" stroke="#000000" points="8,-8 8,-578 2291,-578 2291,-8 8,-8" style=""></polygon>
<text text-anchor="middle" x="1149.5" y="-561.4" font-family="Times,serif" font-size="14.00" fill="#000000" style="">Global</text>
</g>
<g id="clust4" class="cluster">
<title style="">cluster_3</title>
<polygon fill="#234178" fill-opacity="0.184314" stroke="#000000" points="236,-94 236,-486.6 2221,-486.6 2221,-94 236,-94" style=""></polygon>
<text text-anchor="middle" x="1228.5" y="-470" font-family="Times,serif" font-size="14.00" fill="#000000" style="">CellType[cells]</text>
</g>
<g id="clust5" class="cluster">
<title style="">cluster_cpm3</title>
<polygon fill="#234178" fill-opacity="0.184314" stroke="#000000" points="2097,-376 2097,-453.8 2213,-453.8 2213,-376 2097,-376" style=""></polygon>
<text text-anchor="middle" x="2155" y="-437.2" font-family="Times,serif" font-size="14.00" fill="#000000" style="">CPM components</text>
</g>
<g id="clust6" class="cluster">
<title style="">cluster_4</title>
<polygon fill="#234178" fill-opacity="0.184314" stroke="#000000" points="430,-266 430,-428.5 2089,-428.5 2089,-266 430,-266" style=""></polygon>
</g>
<!-- CPM_0_0_5 -->
<g id="node1" class="node">
<title style="">CPM_0_0_5</title>
<g id="a_node1">
<polygon fill="#fffea3" stroke="#000000" points="57,-495.1 57,-544.7 111,-544.7 111,-495.1 57,-495.1" style=""></polygon>
<text text-anchor="middle" x="83.7819" y="-528.1" font-family="Times,serif" font-size="14.00" fill="#000000" style="">CPM</text>
<polyline fill="none" stroke="#000000" points="57,-519.9 110.5638,-519.9 " style=""></polyline>
<text text-anchor="middle" x="83.7819" y="-503.3" font-family="Times,serif" font-size="14.00" fill="#000000" style="">0.5</text>
</g>
</g>
<!-- cell_center_0 -->
<g id="node6" class="node">
<title style="">cell_center_0</title>
<ellipse fill="#b5b426" stroke="#000000" cx="151" cy="-127" rx="50.9588" ry="18" style=""></ellipse>
<ellipse fill="none" stroke="#000000" cx="151" cy="-127" rx="54.9572" ry="22" style=""></ellipse>
<text text-anchor="middle" x="151" y="-122.8" font-family="Times,serif" font-size="14.00" fill="#000000" style="">cell.center</text>
</g>
<!-- CPM_0_0_5&#45;&gt;cell_center_0 -->
<g id="edge2" class="edge">
<title style="">CPM_0_0_5-&gt;cell_center_0</title>
<path fill="none" stroke="#8f100d" stroke-width="3" d="M69.0993,-495.0639C43.3666,-448.8112 -3.8175,-346.839 27,-266 44.9239,-218.9829 86.8672,-177.7706 117.0107,-152.6757" style=""></path>
<polygon fill="#8f100d" stroke="#8f100d" stroke-width="3" points="119.2425,-155.372 124.7835,-146.3416 114.8205,-149.9456 119.2425,-155.372" style=""></polygon>
</g>
<!-- cell_type_0 -->
<g id="node8" class="node">
<title style="">cell_type_0</title>
<ellipse fill="#d3d247" stroke="#000000" cx="84" cy="-311" rx="44.0361" ry="18" style=""></ellipse>
<ellipse fill="none" stroke="#000000" cx="84" cy="-311" rx="48.0377" ry="22" style=""></ellipse>
<text text-anchor="middle" x="84" y="-306.8" font-family="Times,serif" font-size="14.00" fill="#000000" style="">cell.type</text>
</g>
<!-- CPM_0_0_5&#45;&gt;cell_type_0 -->
<g id="edge3" class="edge">
<title style="">CPM_0_0_5-&gt;cell_type_0</title>
<path fill="none" stroke="#8f100d" stroke-width="3" d="M84,-494.7018C84,-456.7672 84,-384.9994 84,-343.2812" style=""></path>
<polygon fill="#8f100d" stroke="#8f100d" stroke-width="3" points="87.5001,-343.1119 84,-333.1119 80.5001,-343.112 87.5001,-343.1119" style=""></polygon>
</g>
<!-- Protrusion_3_0_1 -->
<g id="node9" class="node">
<title style="">Protrusion_3_0_1</title>
<g id="a_node9">
<path fill="#fffea3" stroke="#000000" d="M2129.8352,-384.5C2129.8352,-384.5 2180.1648,-384.5 2180.1648,-384.5 2186.1648,-384.5 2192.1648,-390.5 2192.1648,-396.5 2192.1648,-396.5 2192.1648,-408.5 2192.1648,-408.5 2192.1648,-414.5 2186.1648,-420.5 2180.1648,-420.5 2180.1648,-420.5 2129.8352,-420.5 2129.8352,-420.5 2123.8352,-420.5 2117.8352,-414.5 2117.8352,-408.5 2117.8352,-408.5 2117.8352,-396.5 2117.8352,-396.5 2117.8352,-390.5 2123.8352,-384.5 2129.8352,-384.5" style=""></path>
<text text-anchor="middle" x="2155" y="-398.3" font-family="Times,serif" font-size="14.00" fill="#000000" style="">Protrusion</text>
</g>
</g>
<!-- CPM_0_0_5&#45;&gt;Protrusion_3_0_1 -->
<g id="edge1" class="edge">
<title style="">CPM_0_0_5-&gt;Protrusion_3_0_1</title>
<path fill="none" stroke="#38568c" stroke-dasharray="5,2" d="M111.3414,-519.7836C348.3151,-518.7345 2046.8563,-510.3917 2093,-486.6 2107.3233,-479.2149 2119.172,-466.8273 2128.5387,-453.7987" style=""></path>
</g>
<!-- DisplacementTracker_0_1 -->
<g id="node2" class="node">
<title style="">DisplacementTracker_0_1</title>
<g id="a_node2">" style="">
<polygon fill="#fffea3" stroke="transparent" points="197.5,-66 60.5,-66 60.5,-16 197.5,-16 197.5,-66" style=""></polygon>
<text text-anchor="start" x="64.952" y="-48.5" font-family="times" font-size="15.00" fill="#000000" style="">DisplacementTracker</text>
<text text-anchor="start" x="125.75" y="-24.5" font-family="times" font-size="15.00" fill="#000000" style="">1</text>
<polygon fill="#000000" stroke="#000000" points="61,-41 61,-41 198,-41 198,-41 61,-41" style=""></polygon>
<polygon fill="none" stroke="#000000" points="60.5,-16 60.5,-66 197.5,-66 197.5,-16 60.5,-16" style=""></polygon>
</g>
</g>
<!-- Gnuplotter_0_1000 -->
<g id="node3" class="node">
<title style="">Gnuplotter_0_1000</title>
<g id="a_node3">" style="">
<polygon fill="#fffea3" stroke="transparent" points="225,-238 153,-238 153,-188 225,-188 225,-238" style=""></polygon>
<text text-anchor="start" x="156.507" y="-220.5" font-family="times" font-size="15.00" fill="#000000" style="">Gnuplotter</text>
<text text-anchor="start" x="174" y="-196.5" font-family="times" font-size="15.00" fill="#000000" style="">1000</text>
<polygon fill="#000000" stroke="#000000" points="153,-213 153,-213 225,-213 225,-213 153,-213" style=""></polygon>
<polygon fill="none" stroke="#000000" points="153,-188 153,-238 225,-238 225,-188 153,-188" style=""></polygon>
</g>
</g>
<!-- CellTracker_0_5 -->
<g id="node4" class="node">
<title style="">CellTracker_0_5</title>
<g id="a_node4">" style="">
<polygon fill="#fffea3" stroke="transparent" points="294.5,-66 215.5,-66 215.5,-16 294.5,-16 294.5,-66" style=""></polygon>
<text text-anchor="start" x="219.6875" y="-48.5" font-family="times" font-size="15.00" fill="#000000" style="">CellTracker</text>
<text text-anchor="start" x="251.75" y="-24.5" font-family="times" font-size="15.00" fill="#000000" style="">5</text>
<polygon fill="#000000" stroke="#000000" points="216,-41 216,-41 295,-41 295,-41 216,-41" style=""></polygon>
<polygon fill="none" stroke="#000000" points="215.5,-16 215.5,-66 294.5,-66 294.5,-16 215.5,-16" style=""></polygon>
</g>
</g>
<!-- U_0 -->
<g id="node5" class="node">
<title style="">U_0</title>
<g id="a_node5">
<ellipse fill="#d3d247" stroke="#000000" cx="2256" cy="-311" rx="27" ry="18" style=""></ellipse>
<text text-anchor="middle" x="2256" y="-306.8" font-family="Times,serif" font-size="14.00" fill="#000000" style="">U</text>
</g>
</g>
<!-- U_0&#45;&gt;Protrusion_3_0_1 -->
<g id="edge17" class="edge">
<title style="">U_0-&gt;Protrusion_3_0_1</title>
<path fill="none" stroke="#112c5f" stroke-width="2" d="M2243.4153,-327.2003C2229.5533,-341.237 2207.1559,-361.7602 2188.2914,-377.8367" style=""></path>
<polygon fill="#112c5f" stroke="#112c5f" stroke-width="2" points="2185.86,-375.3082 2180.4581,-384.4225 2190.3647,-380.6662 2185.86,-375.3082" style=""></polygon>
</g>
<!-- cell_center_0&#45;&gt;DisplacementTracker_0_1 -->
<g id="edge23" class="edge">
<title style="">cell_center_0-&gt;DisplacementTracker_0_1</title>
<path fill="none" stroke="#112c5f" stroke-width="2" d="M145.3345,-104.8529C143.0856,-96.0618 140.4442,-85.7365 137.9489,-75.9819" style=""></path>
<polygon fill="#112c5f" stroke="#112c5f" stroke-width="2" points="141.2931,-74.932 135.4238,-66.1114 134.5114,-76.6668 141.2931,-74.932" style=""></polygon>
</g>
<!-- cell_center_0&#45;&gt;CellTracker_0_5 -->
<g id="edge22" class="edge">
<title style="">cell_center_0-&gt;CellTracker_0_5</title>
<path fill="none" stroke="#112c5f" stroke-width="2" d="M175.1211,-107.0537C187.4606,-96.8499 202.7737,-84.1871 216.6813,-72.6866" style=""></path>
<polygon fill="#112c5f" stroke="#112c5f" stroke-width="2" points="219.1983,-75.147 224.6743,-66.077 214.7374,-69.7524 219.1983,-75.147" style=""></polygon>
</g>
<!-- cell_id_0 -->
<g id="node7" class="node">
<title style="">cell_id_0</title>
<ellipse fill="#d3d247" stroke="#000000" cx="189" cy="-311" rx="34.8174" ry="18" style=""></ellipse>
<ellipse fill="none" stroke="#000000" cx="189" cy="-311" rx="38.8075" ry="22" style=""></ellipse>
<text text-anchor="middle" x="189" y="-306.8" font-family="Times,serif" font-size="14.00" fill="#000000" style="">cell.id</text>
</g>
<!-- cell_id_0&#45;&gt;Gnuplotter_0_1000 -->
<g id="edge26" class="edge">
<title style="">cell_id_0-&gt;Gnuplotter_0_1000</title>
<path fill="none" stroke="#112c5f" stroke-width="2" d="M189,-288.7623C189,-276.9092 189,-262.0422 189,-248.6243" style=""></path>
<polygon fill="#112c5f" stroke="#112c5f" stroke-width="2" points="192.5001,-248.2593 189,-238.2593 185.5001,-248.2594 192.5001,-248.2593" style=""></polygon>
</g>
<!-- Protrusion_3_0_1&#45;&gt;U_0 -->
<g id="edge11" class="edge">
<title style="">Protrusion_3_0_1-&gt;U_0</title>
<path fill="none" stroke="#8f100d" stroke-width="3" d="M2169.4506,-384.4225C2185.0385,-368.8371 2209.7732,-346.3884 2228.9222,-330.4234" style=""></path>
<polygon fill="#8f100d" stroke="#8f100d" stroke-width="3" points="2231.2253,-333.0612 2236.744,-324.0171 2226.7899,-327.6457 2231.2253,-333.0612" style=""></polygon>
</g>
<!-- Mapper_3_0_1 -->
<g id="node10" class="node">
<title style="">Mapper_3_0_1</title>
<g id="a_node10">" style="">
<polygon fill="#fffea3" stroke="transparent" points="1348,-152 1294,-152 1294,-102 1348,-102 1348,-152" style=""></polygon>
<text text-anchor="start" x="1297.678" y="-134.5" font-family="times" font-size="15.00" fill="#000000" style="">Mapper</text>
<text text-anchor="start" x="1311.625" y="-110.5" font-family="times" font-size="15.00" fill="#000000" style="">0.1</text>
<polygon fill="#000000" stroke="#000000" points="1294,-127 1294,-127 1348,-127 1348,-127 1294,-127" style=""></polygon>
<polygon fill="none" stroke="#000000" points="1294,-102 1294,-152 1348,-152 1348,-102 1294,-102" style=""></polygon>
</g>
</g>
<!-- Mapper_3_0_1&#45;&gt;U_0 -->
<g id="edge10" class="edge">
<title style="">Mapper_3_0_1-&gt;U_0</title>
<path fill="none" stroke="#8f100d" stroke-width="3" d="M1348.1883,-130.9752C1448.0558,-145.7713 1803.8539,-200.2007 2093,-266 2137.6858,-276.1689 2188.4839,-290.6689 2221.3239,-300.4367" style=""></path>
<polygon fill="#8f100d" stroke="#8f100d" stroke-width="3" points="2220.741,-303.9156 2231.3248,-303.4302 2222.7484,-297.2095 2220.741,-303.9156" style=""></polygon>
</g>
<!-- B_3 -->
<g id="node11" class="node">
<title style="">B_3</title>
<g id="a_node11">
<ellipse fill="#d3d247" stroke="#000000" cx="1249" cy="-213" rx="27" ry="18" style=""></ellipse>
<text text-anchor="middle" x="1249" y="-208.8" font-family="Times,serif" font-size="14.00" fill="#000000" style="">B</text>
</g>
</g>
<!-- R_3 -->
<g id="node12" class="node">
<title style="">R_3</title>
<g id="a_node12">
<ellipse fill="#d3d247" stroke="#000000" cx="1321" cy="-213" rx="27" ry="18" style=""></ellipse>
<text text-anchor="middle" x="1321" y="-208.8" font-family="Times,serif" font-size="14.00" fill="#000000" style="">R</text>
</g>
</g>
<!-- R_3&#45;&gt;Mapper_3_0_1 -->
<g id="edge12" class="edge">
<title style="">R_3-&gt;Mapper_3_0_1</title>
<path fill="none" stroke="#112c5f" stroke-width="2" d="M1321,-194.7616C1321,-185.2487 1321,-173.283 1321,-162.064" style=""></path>
<polygon fill="#112c5f" stroke="#112c5f" stroke-width="2" points="1324.5001,-162.0625 1321,-152.0626 1317.5001,-162.0626 1324.5001,-162.0625" style=""></polygon>
</g>
<!-- RI_3 -->
<g id="node13" class="node">
<title style="">RI_3</title>
<g id="a_node13">
<ellipse fill="#d3d247" stroke="#000000" cx="1393" cy="-213" rx="27" ry="18" style=""></ellipse>
<text text-anchor="middle" x="1393" y="-208.8" font-family="Times,serif" font-size="14.00" fill="#000000" style="">RI</text>
</g>
</g>
<!-- cell_center_3 -->
<g id="node14" class="node">
<title style="">cell_center_3</title>
<ellipse fill="#b5b426" stroke="#000000" cx="742" cy="-213" rx="50.9572" ry="18" style=""></ellipse>
<text text-anchor="middle" x="742" y="-208.8" font-family="Times,serif" font-size="14.00" fill="#000000" style="">cell.center</text>
</g>
<!-- cell_center_3&#45;&gt;cell_center_0 -->
<g id="edge25" class="edge">
<title style="">cell_center_3-&gt;cell_center_0</title>
<path fill="none" stroke="#38568c" stroke-dasharray="5,2" d="M713.8594,-197.9446C705.4397,-194.0678 696.0383,-190.3348 687,-188 490.5929,-137.2645 431.2357,-190.1437 232,-152 218.8464,-149.4817 204.8091,-145.5948 192.1786,-141.6305" style=""></path>
</g>
<!-- cell_center_3&#45;&gt;Mapper_3_0_1 -->
<g id="edge24" class="edge">
<title style="">cell_center_3-&gt;Mapper_3_0_1</title>
<path fill="none" stroke="#112c5f" stroke-width="2" d="M792.9494,-210.9659C907.3438,-205.8373 1182.2647,-190.2341 1284.1973,-153.9084" style=""></path>
<polygon fill="#112c5f" stroke="#112c5f" stroke-width="2" points="1285.7203,-157.0725 1293.7924,-150.2102 1283.2028,-150.5408 1285.7203,-157.0725" style=""></polygon>
</g>
<!-- cell_id_3 -->
<g id="node15" class="node">
<title style="">cell_id_3</title>
<ellipse fill="#d3d247" stroke="#000000" cx="385" cy="-402.5" rx="34.8076" ry="18" style=""></ellipse>
<text text-anchor="middle" x="385" y="-398.3" font-family="Times,serif" font-size="14.00" fill="#000000" style="">cell.id</text>
</g>
<!-- cell_id_3&#45;&gt;cell_id_0 -->
<g id="edge27" class="edge">
<title style="">cell_id_3-&gt;cell_id_0</title>
<path fill="none" stroke="#38568c" stroke-dasharray="5,2" d="M362.9548,-388.4099C356.0394,-384.2119 348.3029,-379.7381 341,-376 300.7617,-355.4035 252.5013,-335.547 221.3206,-323.316" style=""></path>
</g>
<!-- cell_type_3 -->
<g id="node16" class="node">
<title style="">cell_type_3</title>
<g id="a_node16">
<ellipse fill="#d3d247" stroke="#000000" cx="288" cy="-402.5" rx="44.0377" ry="18" style=""></ellipse>
<text text-anchor="middle" x="288" y="-398.3" font-family="Times,serif" font-size="14.00" fill="#000000" style="">cell.type</text>
</g>
</g>
<!-- cell_type_3&#45;&gt;cell_type_0 -->
<g id="edge28" class="edge">
<title style="">cell_type_3-&gt;cell_type_0</title>
<path fill="none" stroke="#38568c" stroke-dasharray="5,2" d="M263.126,-387.3562C255.8406,-383.3117 247.7476,-379.185 240,-376 197.7083,-358.614 182.645,-366.8827 141,-348 130.1476,-343.0793 118.9861,-336.2821 109.4486,-329.855" style=""></path>
</g>
<!-- kb_3 -->
<g id="node17" class="node">
<title style="">kb_3</title>
<g id="a_node17">
<ellipse fill="#d3d247" stroke="#000000" cx="1465" cy="-213" rx="27" ry="18" style=""></ellipse>
<text text-anchor="middle" x="1465" y="-208.8" font-family="Times,serif" font-size="14.00" fill="#000000" style="">kb</text>
</g>
</g>
<!-- System_4_2670328537034436116_0_1 -->
<g id="node18" class="node">
<title style="">System_4_2670328537034436116_0_1</title>
<g id="a_node18">" style="">
<polygon fill="#fffea3" stroke="transparent" points="1389,-348 1325,-348 1325,-274 1389,-274 1389,-348" style=""></polygon>
<text text-anchor="start" x="1334.9163" y="-330.5" font-family="times" font-size="15.00" fill="#000000" style="">System</text>
<text text-anchor="start" x="1328.677" y="-307.5" font-family="times" font-style="italic" font-size="15.00" fill="#000000" style="">'4DPDE'</text>
<text text-anchor="start" x="1347.625" y="-282.5" font-family="times" font-size="15.00" fill="#000000" style="">0.1</text>
<polygon fill="#000000" stroke="#000000" points="1325,-299 1325,-299 1389,-299 1389,-299 1325,-299" style=""></polygon>
<polygon fill="none" stroke="#000000" points="1325,-274 1325,-348 1389,-348 1389,-274 1325,-274" style=""></polygon>
</g>
</g>
<!-- System_4_2670328537034436116_0_1&#45;&gt;B_3 -->
<g id="edge13" class="edge">
<title style="">System_4_2670328537034436116_0_1-&gt;B_3</title>
<path fill="none" stroke="#8f100d" stroke-width="3" d="M1328.6904,-273.9476C1326.1763,-271.1784 1323.5975,-268.4951 1321,-266 1313.3743,-258.6748 1293.4707,-244.1339 1276.5186,-232.133" style=""></path>
<polygon fill="#8f100d" stroke="#8f100d" stroke-width="3" points="1278.1957,-229.0334 1268.0034,-226.1405 1274.167,-234.758 1278.1957,-229.0334" style=""></polygon>
</g>
<!-- System_4_2670328537034436116_0_1&#45;&gt;R_3 -->
<g id="edge15" class="edge">
<title style="">System_4_2670328537034436116_0_1-&gt;R_3</title>
<path fill="none" stroke="#8f100d" stroke-width="3" d="M1343.3899,-273.9504C1339.2556,-262.6957 1334.7921,-250.5452 1330.9465,-240.0765" style=""></path>
<polygon fill="#8f100d" stroke="#8f100d" stroke-width="3" points="1334.2132,-238.8188 1327.4796,-230.6389 1327.6425,-241.2325 1334.2132,-238.8188" style=""></polygon>
</g>
<!-- System_4_2670328537034436116_0_1&#45;&gt;RI_3 -->
<g id="edge14" class="edge">
<title style="">System_4_2670328537034436116_0_1-&gt;RI_3</title>
<path fill="none" stroke="#8f100d" stroke-width="3" d="M1370.6101,-273.9504C1374.7444,-262.6957 1379.2079,-250.5452 1383.0535,-240.0765" style=""></path>
<polygon fill="#8f100d" stroke="#8f100d" stroke-width="3" points="1386.3575,-241.2325 1386.5204,-230.6389 1379.7868,-238.8188 1386.3575,-241.2325" style=""></polygon>
</g>
<!-- System_4_2670328537034436116_0_1&#45;&gt;kb_3 -->
<g id="edge16" class="edge">
<title style="">System_4_2670328537034436116_0_1-&gt;kb_3</title>
<path fill="none" stroke="#8f100d" stroke-width="3" d="M1385.3096,-273.9476C1387.8237,-271.1784 1390.4025,-268.4951 1393,-266 1400.6257,-258.6748 1420.5293,-244.1339 1437.4814,-232.133" style=""></path>
<polygon fill="#8f100d" stroke="#8f100d" stroke-width="3" points="1439.833,-234.758 1445.9966,-226.1405 1435.8043,-229.0334 1439.833,-234.758" style=""></polygon>
</g>
<!-- IR_4 -->
<g id="node19" class="node">
<title style="">IR_4</title>
<g id="a_node19">
<ellipse fill="#d3d247" stroke="#000000" cx="2054" cy="-402.5" rx="27" ry="18" style=""></ellipse>
<text text-anchor="middle" x="2054" y="-398.3" font-family="Times,serif" font-size="14.00" fill="#000000" style="">IR</text>
</g>
</g>
<!-- IR_4&#45;&gt;System_4_2670328537034436116_0_1 -->
<g id="edge4" class="edge">
<title style="">IR_4-&gt;System_4_2670328537034436116_0_1</title>
<path fill="none" stroke="#112c5f" stroke-width="2" d="M2037.9825,-387.5727C2032.1273,-383.0113 2025.171,-378.5339 2018,-376 1889.9871,-330.7659 1536.9125,-401.4747 1398.7188,-349.9596" style=""></path>
<polygon fill="#112c5f" stroke="#112c5f" stroke-width="2" points="1399.7266,-346.5902 1389.1463,-346.036 1397.0718,-353.0672 1399.7266,-346.5902" style=""></polygon>
</g>
<!-- Ik_4 -->
<g id="node20" class="node">
<title style="">Ik_4</title>
<g id="a_node20">
<ellipse fill="#d3d247" stroke="#000000" cx="1982" cy="-402.5" rx="27" ry="18" style=""></ellipse>
<text text-anchor="middle" x="1982" y="-398.3" font-family="Times,serif" font-size="14.00" fill="#000000" style="">Ik</text>
</g>
</g>
<!-- Ik_4&#45;&gt;System_4_2670328537034436116_0_1 -->
<g id="edge5" class="edge">
<title style="">Ik_4-&gt;System_4_2670328537034436116_0_1</title>
<path fill="none" stroke="#112c5f" stroke-width="2" d="M1965.974,-387.5966C1960.1182,-383.037 1953.1636,-378.5548 1946,-376 1833.1593,-335.7573 1522.101,-395.4126 1398.7515,-349.9545" style=""></path>
<polygon fill="#112c5f" stroke="#112c5f" stroke-width="2" points="1399.7315,-346.5739 1389.1508,-346.026 1397.0804,-353.0525 1399.7315,-346.5739" style=""></polygon>
</g>
<!-- Irho_4 -->
<g id="node21" class="node">
<title style="">Irho_4</title>
<g id="a_node21">
<ellipse fill="#d3d247" stroke="#000000" cx="1910" cy="-402.5" rx="27.2467" ry="18" style=""></ellipse>
<text text-anchor="middle" x="1910" y="-398.3" font-family="Times,serif" font-size="14.00" fill="#000000" style="">Irho</text>
</g>
</g>
<!-- Irho_4&#45;&gt;System_4_2670328537034436116_0_1 -->
<g id="edge6" class="edge">
<title style="">Irho_4-&gt;System_4_2670328537034436116_0_1</title>
<path fill="none" stroke="#112c5f" stroke-width="2" d="M1893.9629,-387.6275C1888.1062,-383.0704 1881.1539,-378.5818 1874,-376 1776.2387,-340.7182 1506.8043,-389.4801 1398.5123,-349.8478" style=""></path>
<polygon fill="#112c5f" stroke="#112c5f" stroke-width="2" points="1399.737,-346.5672 1389.1567,-346.013 1397.0822,-353.0442 1399.737,-346.5672" style=""></polygon>
</g>
<!-- LK_4 -->
<g id="node22" class="node">
<title style="">LK_4</title>
<g id="a_node22">
<ellipse fill="#d3d247" stroke="#000000" cx="1838" cy="-402.5" rx="27" ry="18" style=""></ellipse>
<text text-anchor="middle" x="1838" y="-398.3" font-family="Times,serif" font-size="14.00" fill="#000000" style="">LK</text>
</g>
</g>
<!-- LK_4&#45;&gt;System_4_2670328537034436116_0_1 -->
<g id="edge7" class="edge">
<title style="">LK_4-&gt;System_4_2670328537034436116_0_1</title>
<path fill="none" stroke="#112c5f" stroke-width="2" d="M1821.9478,-387.6692C1816.0898,-383.1154 1809.1406,-378.6183 1802,-376 1719.3906,-345.7091 1491.9458,-383.524 1398.563,-349.8458" style=""></path>
<polygon fill="#112c5f" stroke="#112c5f" stroke-width="2" points="1399.7452,-346.5479 1389.1648,-345.9955 1397.0914,-353.0254 1399.7452,-346.5479" style=""></polygon>
</g>
<!-- LR_4 -->
<g id="node23" class="node">
<title style="">LR_4</title>
<g id="a_node23">
<ellipse fill="#d3d247" stroke="#000000" cx="1766" cy="-402.5" rx="27" ry="18" style=""></ellipse>
<text text-anchor="middle" x="1766" y="-398.3" font-family="Times,serif" font-size="14.00" fill="#000000" style="">LR</text>
</g>
</g>
<!-- LR_4&#45;&gt;System_4_2670328537034436116_0_1 -->
<g id="edge8" class="edge">
<title style="">LR_4-&gt;System_4_2670328537034436116_0_1</title>
<path fill="none" stroke="#112c5f" stroke-width="2" d="M1749.9258,-387.7284C1744.0661,-383.1794 1737.1214,-378.6701 1730,-376 1592.4339,-324.42 1531.6668,-408.2286 1398.4741,-350.1987" style=""></path>
<polygon fill="#112c5f" stroke="#112c5f" stroke-width="2" points="1399.7283,-346.9241 1389.1764,-345.9706 1396.8305,-353.2962 1399.7283,-346.9241" style=""></polygon>
</g>
<!-- Lrho_4 -->
<g id="node24" class="node">
<title style="">Lrho_4</title>
<g id="a_node24">
<ellipse fill="#d3d247" stroke="#000000" cx="1691" cy="-402.5" rx="29.6166" ry="18" style=""></ellipse>
<text text-anchor="middle" x="1691" y="-398.3" font-family="Times,serif" font-size="14.00" fill="#000000" style="">Lrho</text>
</g>
</g>
<!-- Lrho_4&#45;&gt;System_4_2670328537034436116_0_1 -->
<g id="edge9" class="edge">
<title style="">Lrho_4-&gt;System_4_2670328537034436116_0_1</title>
<path fill="none" stroke="#112c5f" stroke-width="2" d="M1673.3747,-387.8401C1667.0097,-383.3 1659.5297,-378.7678 1652,-376 1546.5114,-337.2235 1499.8471,-395.131 1398.5234,-350.2759" style=""></path>
<polygon fill="#112c5f" stroke="#112c5f" stroke-width="2" points="1399.7391,-346.9811 1389.1967,-345.9283 1396.7815,-353.3257 1399.7391,-346.9811" style=""></polygon>
</g>
<!-- a_4 -->
<g id="node25" class="node">
<title style="">a_4</title>
<g id="a_node25">
<ellipse fill="#d3d247" stroke="#000000" cx="1616" cy="-402.5" rx="27" ry="18" style=""></ellipse>
<text text-anchor="middle" x="1616" y="-398.3" font-family="Times,serif" font-size="14.00" fill="#000000" style="">a</text>
</g>
</g>
<!-- a_4&#45;&gt;System_4_2670328537034436116_0_1 -->
<g id="edge18" class="edge">
<title style="">a_4-&gt;System_4_2670328537034436116_0_1</title>
<path fill="none" stroke="#112c5f" stroke-width="2" d="M1599.8211,-387.9942C1593.953,-383.4665 1587.0298,-378.9027 1580,-376 1505.358,-345.1792 1470.5424,-383.148 1398.2397,-350.2338" style=""></path>
<polygon fill="#112c5f" stroke="#112c5f" stroke-width="2" points="1399.7557,-347.0791 1389.2313,-345.8591 1396.6978,-353.3759 1399.7557,-347.0791" style=""></polygon>
</g>
<!-- alphaP_4 -->
<g id="node26" class="node">
<title style="">alphaP_4</title>
<g id="a_node26">
<ellipse fill="#d3d247" stroke="#000000" cx="1534" cy="-402.5" rx="37.1386" ry="18" style=""></ellipse>
<text text-anchor="middle" x="1534" y="-398.3" font-family="Times,serif" font-size="14.00" fill="#000000" style="">alphaP</text>
</g>
</g>
<!-- alphaP_4&#45;&gt;System_4_2670328537034436116_0_1 -->
<g id="edge19" class="edge">
<title style="">alphaP_4-&gt;System_4_2670328537034436116_0_1</title>
<path fill="none" stroke="#112c5f" stroke-width="2" d="M1511.0942,-388.2284C1503.5951,-383.9276 1495.1053,-379.4407 1487,-376 1449.8521,-360.2305 1432.8834,-369.0076 1398.0919,-350.6036" style=""></path>
<polygon fill="#112c5f" stroke="#112c5f" stroke-width="2" points="1399.782,-347.5384 1389.3611,-345.6266 1396.3153,-353.6197 1399.782,-347.5384" style=""></polygon>
</g>
<!-- alphaR_4 -->
<g id="node27" class="node">
<title style="">alphaR_4</title>
<g id="a_node27">
<ellipse fill="#d3d247" stroke="#000000" cx="1440" cy="-402.5" rx="38.2818" ry="18" style=""></ellipse>
<text text-anchor="middle" x="1440" y="-398.3" font-family="Times,serif" font-size="14.00" fill="#000000" style="">alphaR</text>
</g>
</g>
<!-- alphaR_4&#45;&gt;System_4_2670328537034436116_0_1 -->
<g id="edge20" class="edge">
<title style="">alphaR_4-&gt;System_4_2670328537034436116_0_1</title>
<path fill="none" stroke="#112c5f" stroke-width="2" d="M1424.7765,-385.7175C1416.7153,-376.8307 1406.407,-365.4667 1396.2759,-354.2981" style=""></path>
<polygon fill="#112c5f" stroke="#112c5f" stroke-width="2" points="1398.6313,-351.6853 1389.3202,-346.6301 1393.4465,-356.3884 1398.6313,-351.6853" style=""></polygon>
</g>
<!-- c_4 -->
<g id="node28" class="node">
<title style="">c_4</title>
<g id="a_node28">
<ellipse fill="#d3d247" stroke="#000000" cx="1357" cy="-402.5" rx="27" ry="18" style=""></ellipse>
<text text-anchor="middle" x="1357" y="-398.3" font-family="Times,serif" font-size="14.00" fill="#000000" style="">c</text>
</g>
</g>
<!-- c_4&#45;&gt;System_4_2670328537034436116_0_1 -->
<g id="edge21" class="edge">
<title style="">c_4-&gt;System_4_2670328537034436116_0_1</title>
<path fill="none" stroke="#112c5f" stroke-width="2" d="M1357,-384.4225C1357,-376.8495 1357,-367.6561 1357,-358.3734" style=""></path>
<polygon fill="#112c5f" stroke="#112c5f" stroke-width="2" points="1360.5001,-358.3382 1357,-348.3382 1353.5001,-358.3382 1360.5001,-358.3382" style=""></polygon>
</g>
<!-- d_4 -->
<g id="node29" class="node">
<title style="">d_4</title>
<g id="a_node29">
<ellipse fill="#d3d247" stroke="#000000" cx="1285" cy="-402.5" rx="27" ry="18" style=""></ellipse>
<text text-anchor="middle" x="1285" y="-398.3" font-family="Times,serif" font-size="14.00" fill="#000000" style="">d</text>
</g>
</g>
<!-- d_4&#45;&gt;System_4_2670328537034436116_0_1 -->
<g id="edge29" class="edge">
<title style="">d_4-&gt;System_4_2670328537034436116_0_1</title>
<path fill="none" stroke="#112c5f" stroke-width="2" d="M1297.8722,-386.1416C1304.5121,-377.7034 1312.9723,-366.9518 1321.4031,-356.2377" style=""></path>
<polygon fill="#112c5f" stroke="#112c5f" stroke-width="2" points="1324.3804,-358.1139 1327.8138,-348.0908 1318.8793,-353.7852 1324.3804,-358.1139" style=""></polygon>
</g>
<!-- delta_P_4 -->
<g id="node30" class="node">
<title style="">delta_P_4</title>
<g id="a_node30">
<ellipse fill="#d3d247" stroke="#000000" cx="1200" cy="-402.5" rx="40.005" ry="18" style=""></ellipse>
<text text-anchor="middle" x="1200" y="-398.3" font-family="Times,serif" font-size="14.00" fill="#000000" style="">delta_P</text>
</g>
</g>
<!-- delta_P_4&#45;&gt;System_4_2670328537034436116_0_1 -->
<g id="edge30" class="edge">
<title style="">delta_P_4-&gt;System_4_2670328537034436116_0_1</title>
<path fill="none" stroke="#112c5f" stroke-width="2" d="M1224.8727,-388.2704C1232.5121,-384.1121 1241.0125,-379.6954 1249,-376 1277.2398,-362.9347 1289.9181,-366.1253 1316.3272,-350.6185" style=""></path>
<polygon fill="#112c5f" stroke="#112c5f" stroke-width="2" points="1318.3941,-353.4533 1324.9964,-345.1671 1314.6678,-347.5275 1318.3941,-353.4533" style=""></polygon>
</g>
<!-- delta_rac_4 -->
<g id="node31" class="node">
<title style="">delta_rac_4</title>
<g id="a_node31">
<ellipse fill="#d3d247" stroke="#000000" cx="1096" cy="-402.5" rx="46.345" ry="18" style=""></ellipse>
<text text-anchor="middle" x="1096" y="-398.3" font-family="Times,serif" font-size="14.00" fill="#000000" style="">delta_rac</text>
</g>
</g>
<!-- delta_rac_4&#45;&gt;System_4_2670328537034436116_0_1 -->
<g id="edge31" class="edge">
<title style="">delta_rac_4-&gt;System_4_2670328537034436116_0_1</title>
<path fill="none" stroke="#112c5f" stroke-width="2" d="M1122.7864,-387.702C1131.5611,-383.373 1141.5,-379.0025 1151,-376 1220.8764,-353.9154 1250.5385,-380.9159 1315.7505,-350.3144" style=""></path>
<polygon fill="#112c5f" stroke="#112c5f" stroke-width="2" points="1317.3615,-353.4222 1324.756,-345.8346 1314.2437,-347.1548 1317.3615,-353.4222" style=""></polygon>
</g>
<!-- delta_rho_4 -->
<g id="node32" class="node">
<title style="">delta_rho_4</title>
<g id="a_node32">
<ellipse fill="#d3d247" stroke="#000000" cx="984" cy="-402.5" rx="47.5119" ry="18" style=""></ellipse>
<text text-anchor="middle" x="984" y="-398.3" font-family="Times,serif" font-size="14.00" fill="#000000" style="">delta_rho</text>
</g>
</g>
<!-- delta_rho_4&#45;&gt;System_4_2670328537034436116_0_1 -->
<g id="edge32" class="edge">
<title style="">delta_rho_4-&gt;System_4_2670328537034436116_0_1</title>
<path fill="none" stroke="#112c5f" stroke-width="2" d="M1011.1241,-387.629C1020.3543,-383.1871 1030.8959,-378.7684 1041,-376 1158.4392,-343.8228 1205.8361,-399.2624 1315.7407,-350.1647" style=""></path>
<polygon fill="#112c5f" stroke="#112c5f" stroke-width="2" points="1317.2218,-353.3359 1324.8099,-345.942 1314.2671,-346.9901 1317.2218,-353.3359" style=""></polygon>
</g>
<!-- epsilon_4 -->
<g id="node33" class="node">
<title style="">epsilon_4</title>
<g id="a_node33">
<ellipse fill="#d3d247" stroke="#000000" cx="880" cy="-402.5" rx="38.8632" ry="18" style=""></ellipse>
<text text-anchor="middle" x="880" y="-398.3" font-family="Times,serif" font-size="14.00" fill="#000000" style="">epsilon</text>
</g>
</g>
<!-- epsilon_4&#45;&gt;System_4_2670328537034436116_0_1 -->
<g id="edge33" class="edge">
<title style="">epsilon_4-&gt;System_4_2670328537034436116_0_1</title>
<path fill="none" stroke="#112c5f" stroke-width="2" d="M902.0372,-387.4201C909.6262,-382.9643 918.3884,-378.5902 927,-376 1008.1013,-351.6063 1225.3839,-382.6553 1315.5015,-349.8385" style=""></path>
<polygon fill="#112c5f" stroke="#112c5f" stroke-width="2" points="1316.9222,-353.0386 1324.8332,-345.991 1314.254,-346.567 1316.9222,-353.0386" style=""></polygon>
</g>
<!-- epsilon_kb_4 -->
<g id="node34" class="node">
<title style="">epsilon_kb_4</title>
<g id="a_node34">
<ellipse fill="#d3d247" stroke="#000000" cx="770" cy="-402.5" rx="53.3341" ry="18" style=""></ellipse>
<text text-anchor="middle" x="770" y="-398.3" font-family="Times,serif" font-size="14.00" fill="#000000" style="">epsilon_kb</text>
</g>
</g>
<!-- epsilon_kb_4&#45;&gt;System_4_2670328537034436116_0_1 -->
<g id="edge34" class="edge">
<title style="">epsilon_kb_4-&gt;System_4_2670328537034436116_0_1</title>
<path fill="none" stroke="#112c5f" stroke-width="2" d="M799.5622,-387.3942C809.6059,-382.9366 821.0597,-378.568 832,-376 934.8601,-351.8555 1205.4913,-390.7835 1315.3458,-349.9351" style=""></path>
<polygon fill="#112c5f" stroke="#112c5f" stroke-width="2" points="1316.9359,-353.0653 1324.844,-346.0146 1314.2651,-346.5948 1316.9359,-353.0653" style=""></polygon>
</g>
<!-- gamma_4 -->
<g id="node35" class="node">
<title style="">gamma_4</title>
<g id="a_node35">
<ellipse fill="#d3d247" stroke="#000000" cx="659" cy="-402.5" rx="39.4254" ry="18" style=""></ellipse>
<text text-anchor="middle" x="659" y="-398.3" font-family="Times,serif" font-size="14.00" fill="#000000" style="">gamma</text>
</g>
</g>
<!-- gamma_4&#45;&gt;System_4_2670328537034436116_0_1 -->
<g id="edge36" class="edge">
<title style="">gamma_4-&gt;System_4_2670328537034436116_0_1</title>
<path fill="none" stroke="#112c5f" stroke-width="2" d="M681.519,-387.5734C689.5461,-383.012 698.8673,-378.5345 708,-376 836.3186,-340.3894 1179.9988,-400.9373 1315.4651,-349.9046" style=""></path>
<polygon fill="#112c5f" stroke="#112c5f" stroke-width="2" points="1316.9417,-353.0817 1324.853,-346.0345 1314.2738,-346.61 1316.9417,-353.0817" style=""></polygon>
</g>
<!-- gammaR_4 -->
<g id="node36" class="node">
<title style="">gammaR_4</title>
<g id="a_node36">
<ellipse fill="#d3d247" stroke="#000000" cx="556" cy="-402.5" rx="45.806" ry="18" style=""></ellipse>
<text text-anchor="middle" x="556" y="-398.3" font-family="Times,serif" font-size="14.00" fill="#000000" style="">gammaR</text>
</g>
</g>
<!-- gammaR_4&#45;&gt;System_4_2670328537034436116_0_1 -->
<g id="edge35" class="edge">
<title style="">gammaR_4-&gt;System_4_2670328537034436116_0_1</title>
<path fill="none" stroke="#112c5f" stroke-width="2" d="M581.7498,-387.4074C590.7114,-382.8925 601.0239,-378.4859 611,-376 761.0733,-338.6048 1159.9627,-409.2718 1315.4181,-349.9448" style=""></path>
<polygon fill="#112c5f" stroke="#112c5f" stroke-width="2" points="1316.9518,-353.0982 1324.8579,-346.0453 1314.2791,-346.6285 1316.9518,-353.0982" style=""></polygon>
</g>
<!-- n_4 -->
<g id="node37" class="node">
<title style="">n_4</title>
<g id="a_node37">
<ellipse fill="#d3d247" stroke="#000000" cx="465" cy="-402.5" rx="27" ry="18" style=""></ellipse>
<text text-anchor="middle" x="465" y="-398.3" font-family="Times,serif" font-size="14.00" fill="#000000" style="">n</text>
</g>
</g>
<!-- n_4&#45;&gt;System_4_2670328537034436116_0_1 -->
<g id="edge37" class="edge">
<title style="">n_4-&gt;System_4_2670328537034436116_0_1</title>
<path fill="none" stroke="#112c5f" stroke-width="2" d="M480.6452,-387.8087C486.5722,-383.1473 493.669,-378.5467 501,-376 670.2047,-317.2209 1137.4512,-418.1204 1315.5813,-349.8817" style=""></path>
<polygon fill="#112c5f" stroke="#112c5f" stroke-width="2" points="1316.9515,-353.1026 1324.8619,-346.0544 1314.2828,-346.6313 1316.9515,-353.1026" style=""></polygon>
</g>
</g>
</svg>