<?xml version="1.0" encoding="UTF-8" standalone="no"?> <svg xmlns="http://www.w3.org/2000/svg" xmlns:xlink="http://www.w3.org/1999/xlink" width="462pt" height="674pt" viewBox="0.00 0.00 462 674.2">
<g id="graph0" class="graph" transform="translate(4, 670.2000122070312)">
<title>%0</title>
<polygon fill="#ffffff" stroke="transparent" points="-4,4 -4,-670.2 458,-670.2 458,4 -4,4"></polygon>
<g id="clust1" class="cluster">
<title>cluster</title>
<polygon fill="#234178" fill-opacity="0.184314" stroke="#000000" points="8,-8 8,-658.2 446,-658.2 446,-8 8,-8"></polygon>
<text text-anchor="middle" x="227" y="-641.6" font-family="Times,serif" font-size="14.00" fill="#000000">Global</text>
</g>


<g id="clust3" class="cluster">
<title>cluster_2</title>
<polygon fill="#234178" fill-opacity="0.184314" stroke="#000000" points="16,-16 16,-566.8 438,-566.8 438,-16 16,-16"></polygon>
<text text-anchor="middle" x="227" y="-550.2" font-family="Times,serif" font-size="14.00" fill="#000000">CellType[cancer_cell]</text>
</g><g id="clust4" class="cluster">
<title>cluster_cpm2</title>
<polygon fill="#234178" fill-opacity="0.184314" stroke="#000000" points="95,-410.5 95,-488.3 223,-488.3 223,-410.5 95,-410.5"></polygon>
<text text-anchor="middle" x="159" y="-471.7" font-family="Times,serif" font-size="14.00" fill="#000000">CPM components</text>
</g>
<!-- CPM_0_1 --><g id="clust8" class="cluster">
<title>cluster_6</title>
<polygon fill="#234178" fill-opacity="0.184314" stroke="#000000" points="201,-88 201,-154 269,-154 269,-88 201,-88"></polygon>
</g>

<!-- cell_center_0 --><g id="node1" class="node">
<title>CPM_0_1</title>
<g id="a_node1">
<polygon fill="#fffea3" stroke="#000000" points="163,-575.3 163,-624.9 217,-624.9 217,-575.3 163,-575.3"></polygon>
<text text-anchor="middle" x="189.7819" y="-608.3" font-family="Times,serif" font-size="14.00" fill="#000000">CPM</text>
<polyline fill="none" stroke="#000000" points="163,-600.1 216.5638,-600.1 "></polyline>
<text text-anchor="middle" x="189.7819" y="-583.5" font-family="Times,serif" font-size="14.00" fill="#000000">1</text>
</g>
</g>

<!-- CPM_0_1&#45;&gt;cell_center_0 -->

<!-- cell_type_0 -->

<!-- CPM_0_1&#45;&gt;cell_type_0 -->
<g id="edge2" class="edge">
<title>CPM_0_1-&gt;cell_center_2</title>
<path fill="none" stroke="#8f100d" stroke-width="3" d="M217.103,-596.4202C243.3058,-592.0651 283.5497,-583.2316 315,-566.8 328.1104,-559.9503 340.8735,-549.7959 351.2337,-540.3624"></path>
<polygon fill="#8f100d" stroke="#8f100d" stroke-width="3" points="353.786,-542.7662 358.6538,-533.3558 348.9801,-537.6766 353.786,-542.7662"></polygon>
</g>
<!-- PersistentMotion_1_1 -->

<!-- CPM_0_1&#45;&gt;PersistentMotion_1_1 --><g id="node2" class="node">
<title>PersistentMotion_2_1</title>
<g id="a_node2">
<path fill="#fffea3" stroke="#000000" d="M115.1704,-419C115.1704,-419 202.8296,-419 202.8296,-419 208.8296,-419 214.8296,-425 214.8296,-431 214.8296,-431 214.8296,-443 214.8296,-443 214.8296,-449 208.8296,-455 202.8296,-455 202.8296,-455 115.1704,-455 115.1704,-455 109.1704,-455 103.1704,-449 103.1704,-443 103.1704,-443 103.1704,-431 103.1704,-431 103.1704,-425 109.1704,-419 115.1704,-419"></path>
<text text-anchor="middle" x="159" y="-432.8" font-family="Times,serif" font-size="14.00" fill="#000000">PersistentMotion</text>
</g>
</g>
<g id="edge3" class="edge">
<title>CPM_0_1-&gt;cell_type_2</title>
<path fill="none" stroke="#8f100d" stroke-width="3" d="M190,-574.8672C190,-565.2027 190,-554.1191 190,-544.1948"></path>
<polygon fill="#8f100d" stroke="#8f100d" stroke-width="3" points="193.5001,-544.0028 190,-534.0029 186.5001,-544.0029 193.5001,-544.0028"></polygon>
</g>
<!-- Gnuplotter_0_5 --><g id="edge1" class="edge">
<title>CPM_0_1-&gt;PersistentMotion_2_1</title>
<path fill="none" stroke="#38568c" stroke-dasharray="5,2" d="M162.7764,-598.7636C119.85,-596.023 39.5027,-588.1125 22,-566.8 2.5937,-543.1696 5.3464,-523.6449 22,-498 38.3194,-472.8697 67.6544,-458.0061 95.004,-449.2573"></path>
</g>

<!-- Logger_0_1 -->

<!-- cell_center_x_0 -->

<!-- cell_center_0&#45;&gt;cell_center_x_0 -->


<!-- cell_center_y_0 --><g id="node3" class="node">
<title>VectorMapper_2_1</title>
<g id="a_node3">">
<polygon fill="#fffea3" stroke="transparent" points="409.5,-462 314.5,-462 314.5,-412 409.5,-412 409.5,-462"></polygon>
<text text-anchor="start" x="318.7743" y="-444.5" font-family="times" font-size="15.00" fill="#000000">VectorMapper</text>
<text text-anchor="start" x="358.75" y="-420.5" font-family="times" font-size="15.00" fill="#000000">1</text>
<polygon fill="#000000" stroke="#000000" points="315,-437 315,-437 410,-437 410,-437 315,-437"></polygon>
<polygon fill="none" stroke="#000000" points="314.5,-412 314.5,-462 409.5,-462 409.5,-412 314.5,-412"></polygon>
</g>
</g>

<!-- cell_center_0&#45;&gt;cell_center_y_0 -->

<!-- cell_center_x_0&#45;&gt;Logger_0_1 --><g id="edge10" class="edge">
<title>VectorMapper_2_1-&gt;com_2</title>
<path fill="none" stroke="#8f100d" stroke-width="3" d="M368.4382,-411.5691C370.5165,-403.3598 372.8309,-394.2179 374.9509,-385.8438"></path>
<polygon fill="#8f100d" stroke="#8f100d" stroke-width="3" points="378.3503,-386.6774 377.4116,-376.1242 371.5643,-384.9594 378.3503,-386.6774"></polygon>
</g>

<!-- cell_center_xshifted_0 --><g id="node4" class="node">
<title>DelayProperty_2_1</title>
<g id="a_node4">">
<polygon fill="#fffea3" stroke="transparent" points="429.5,-304 334.5,-304 334.5,-254 429.5,-254 429.5,-304"></polygon>
<text text-anchor="start" x="338.7668" y="-286.5" font-family="times" font-size="15.00" fill="#000000">DelayProperty</text>
<text text-anchor="start" x="378.75" y="-262.5" font-family="times" font-size="15.00" fill="#000000">1</text>
<polygon fill="#000000" stroke="#000000" points="335,-279 335,-279 430,-279 430,-279 335,-279"></polygon>
<polygon fill="none" stroke="#000000" points="334.5,-254 334.5,-304 429.5,-304 429.5,-254 334.5,-254"></polygon>
</g>
</g>

<!-- cell_center_x_0&#45;&gt;cell_center_xshifted_0 --><g id="node13" class="node">
<title>theta_last_2</title>
<ellipse fill="#d3d247" stroke="#000000" cx="287" cy="-200" rx="33.0813" ry="18"></ellipse>
<text text-anchor="middle" x="287" y="-195.8" font-family="Times,serif" font-size="14.00" fill="#000000">θ.last</text>
</g>

<!-- cell_center_xshifted_0&#45;&gt;Logger_0_1 --><g id="edge4" class="edge">
<title>DelayProperty_2_1-&gt;theta_last_2</title>
<path fill="none" stroke="#8f100d" stroke-width="3" d="M351.6802,-253.7867C339.2384,-243.4403 324.979,-231.5826 313.0206,-221.6382"></path>
<polygon fill="#8f100d" stroke="#8f100d" stroke-width="3" points="315.0866,-218.8041 305.1598,-215.1013 310.6108,-224.1864 315.0866,-218.8041"></polygon>
</g>

<!-- cell_center_y_0&#45;&gt;Logger_0_1 -->

<!-- cell_center_yshifted_0 --><g id="edge5" class="edge">
<title>Equation_2_1-&gt;theta_last_2</title>
<path fill="none" stroke="#8f100d" stroke-width="3" d="M285.6438,-253.5691C285.8471,-245.5402 286.0729,-236.6193 286.2811,-228.397"></path>
<polygon fill="#8f100d" stroke="#8f100d" stroke-width="3" points="289.7869,-228.2096 286.5412,-218.1242 282.7891,-228.0324 289.7869,-228.2096"></polygon>
</g>

<!-- cell_center_y_0&#45;&gt;cell_center_yshifted_0 -->

<!-- cell_center_yshifted_0&#45;&gt;Logger_0_1 -->

<!-- cell_id_0 -->

<!-- cell_id_0&#45;&gt;Gnuplotter_0_5 --><g id="edge14" class="edge">
<title>cell_center_2-&gt;VectorMapper_2_1</title>
<path fill="none" stroke="#112c5f" stroke-width="2" d="M371.9849,-497.6772C370.7341,-490.0766 369.239,-480.9908 367.7913,-472.1933"></path>
<polygon fill="#112c5f" stroke="#112c5f" stroke-width="2" points="371.2085,-471.4036 366.1311,-462.1046 364.3014,-472.5403 371.2085,-471.4036"></polygon>
</g>

<!-- cell_surface_0 --><g id="edge11" class="edge">
<title>cell_center_2-&gt;Equation_2_1</title>
<path fill="none" stroke="#112c5f" stroke-width="2" d="M406.5358,-501.8188C411.538,-498.1467 416.0332,-493.6735 419,-488.3 450.8576,-430.5993 456.256,-394.3716 419,-340 393.9471,-303.4377 365.7454,-323.615 326,-304 325.6916,-303.8478 325.3825,-303.694 325.0728,-303.5387"></path>
<polygon fill="#112c5f" stroke="#112c5f" stroke-width="2" points="326.4844,-300.3247 316.0151,-298.6983 323.1851,-306.4984 326.4844,-300.3247"></polygon>
</g>

<!-- cell_surface_0&#45;&gt;Logger_0_1 --><g id="node15" class="node">
<title>System_6_1</title>
<g id="a_node15">">
<polygon fill="#fffea3" stroke="transparent" points="261,-146 209,-146 209,-96 261,-96 261,-146"></polygon>
<text text-anchor="start" x="212.9163" y="-128.5" font-family="times" font-size="15.00" fill="#000000">System</text>
<text text-anchor="start" x="231.25" y="-104.5" font-family="times" font-size="15.00" fill="#000000">1</text>
<polygon fill="#000000" stroke="#000000" points="209,-121 209,-121 261,-121 261,-121 209,-121"></polygon>
<polygon fill="none" stroke="#000000" points="209,-96 209,-146 261,-146 261,-96 209,-96"></polygon>
</g>
</g>

<!-- cell_volume_0 --><g id="edge13" class="edge">
<title>cell_center_2-&gt;System_6_1</title>
<path fill="none" stroke="#112c5f" stroke-width="2" d="M330.5622,-507.0075C320.9146,-502.9154 311.8564,-496.9618 306,-488.3 286.6326,-459.6552 297.3884,-443.9882 306,-410.5 310.3596,-393.5467 320.6404,-392.9533 325,-376 328.9848,-360.5042 334.2998,-353.0197 325,-340 296.3256,-299.8558 248.6744,-344.1442 220,-304 188.9129,-260.4781 205.0176,-195.3979 219.8088,-155.7123"></path>
<polygon fill="#112c5f" stroke="#112c5f" stroke-width="2" points="223.1462,-156.7871 223.5115,-146.1985 216.6229,-154.2482 223.1462,-156.7871"></polygon>
</g>

<!-- cell_volume_0&#45;&gt;Logger_0_1 --><g id="edge15" class="edge">
<title>com_2-&gt;Equation_2_1</title>
<path fill="none" stroke="#112c5f" stroke-width="2" d="M364.6583,-343.8764C353.3612,-334.6756 338.1526,-322.2893 324.0524,-310.8056"></path>
<polygon fill="#112c5f" stroke="#112c5f" stroke-width="2" points="325.8805,-307.7805 315.9164,-304.1793 321.46,-313.2082 325.8805,-307.7805"></polygon>
</g>

<!-- d_0 --><g id="edge16" class="edge">
<title>com_2-&gt;System_6_1</title>
<path fill="none" stroke="#112c5f" stroke-width="2" d="M358.9671,-347.9193C352.8258,-345.289 346.1796,-342.4938 340,-340 298.1287,-323.103 271.6588,-340.4421 245,-304 213.5277,-260.9779 218.9645,-195.8936 226.4811,-156.047"></path>
<polygon fill="#112c5f" stroke="#112c5f" stroke-width="2" points="229.9606,-156.4996 228.5212,-146.003 223.1006,-155.1062 229.9606,-156.4996"></polygon>
</g>

<!-- d_0&#45;&gt;Logger_0_1 -->
<g id="node10" class="node">
<title>stored_center_2</title>
<ellipse fill="#b5b426" stroke="#000000" cx="253" cy="-358" rx="63.0996" ry="18"></ellipse>
<text text-anchor="middle" x="253" y="-353.8" font-family="Times,serif" font-size="14.00" fill="#000000">stored_center</text>
</g><g id="edge6" class="edge">
<title>PersistentMotion_2_1-&gt;stored_center_2</title>
<path fill="none" stroke="#8f100d" stroke-width="3" d="M175.001,-418.6772C187.2467,-407.4473 204.3354,-392.9749 219.4601,-380.9811"></path>
<polygon fill="#8f100d" stroke="#8f100d" stroke-width="3" points="221.8912,-383.5233 227.6174,-374.6091 217.5821,-378.0068 221.8912,-383.5233"></polygon>
</g><g id="node11" class="node">
<title>stored_direction_2</title>
<ellipse fill="#b5b426" stroke="#000000" cx="98" cy="-358" rx="73.5753" ry="18"></ellipse>
<text text-anchor="middle" x="98" y="-353.8" font-family="Times,serif" font-size="14.00" fill="#000000">stored_direction</text>
</g><g id="edge8" class="edge">
<title>S_2-&gt;PersistentMotion_2_1</title>
<path fill="none" stroke="#112c5f" stroke-width="2" d="M257.4319,-504.8674C252.7098,-502.528 247.7133,-500.1267 243,-498 232.5132,-493.2681 228.8338,-494.2717 219,-488.3 206.7714,-480.874 194.539,-470.9741 184.3392,-461.8527"></path>
<polygon fill="#112c5f" stroke="#112c5f" stroke-width="2" points="186.7017,-459.2703 176.9694,-455.083 181.9663,-464.4255 186.7017,-459.2703"></polygon>
</g><g id="node7" class="node">
<title>cell_center_2</title>
<ellipse fill="#b5b426" stroke="#000000" cx="375" cy="-516" rx="50.9572" ry="18"></ellipse>
<text text-anchor="middle" x="375" y="-511.8" font-family="Times,serif" font-size="14.00" fill="#000000">cell.center</text>
</g><g id="edge7" class="edge">
<title>PersistentMotion_2_1-&gt;stored_direction_2</title>
<path fill="none" stroke="#8f100d" stroke-width="3" d="M139.0513,-418.6772C130.1238,-408.4344 119.933,-395.4941 111.8308,-384.1974"></path>
<polygon fill="#8f100d" stroke="#8f100d" stroke-width="3" points="114.6797,-382.1637 106.0976,-375.951 108.9322,-386.1596 114.6797,-382.1637"></polygon>
</g><g id="node9" class="node">
<title>com_2</title>
<g id="a_node9">
<ellipse fill="#b5b426" stroke="#000000" cx="382" cy="-358" rx="27.8286" ry="18"></ellipse>
<text text-anchor="middle" x="382" y="-353.8" font-family="Times,serif" font-size="14.00" fill="#000000">com</text>
</g>
</g><g id="node5" class="node">
<title>Equation_2_1</title>
<g id="a_node5">">
<polygon fill="#fffea3" stroke="transparent" points="316,-304 254,-304 254,-254 316,-254 316,-304"></polygon>
<text text-anchor="start" x="257.9205" y="-286.5" font-family="times" font-size="15.00" fill="#000000">Equation</text>
<text text-anchor="start" x="281.25" y="-262.5" font-family="times" font-size="15.00" fill="#000000">1</text>
<polygon fill="#000000" stroke="#000000" points="254,-279 254,-279 316,-279 316,-279 254,-279"></polygon>
<polygon fill="none" stroke="#000000" points="254,-254 254,-304 316,-304 316,-254 254,-254"></polygon>
</g>
</g><g id="node6" class="node">
<title>S_2</title>
<g id="a_node6">
<ellipse fill="#d3d247" stroke="#000000" cx="279" cy="-516" rx="27" ry="18"></ellipse>
<text text-anchor="middle" x="279" y="-511.8" font-family="Times,serif" font-size="14.00" fill="#000000">S</text>
</g>
</g><g id="edge12" class="edge">
<title>cell_center_2-&gt;PersistentMotion_2_1</title>
<path fill="none" stroke="#112c5f" stroke-width="2" d="M337.83,-503.6503C330.3363,-501.501 322.4668,-499.4831 315,-498 272.9378,-489.6452 258.4308,-505.1594 219,-488.3 205.2427,-482.4178 192.3074,-472.2231 181.9949,-462.4637"></path>
<polygon fill="#112c5f" stroke="#112c5f" stroke-width="2" points="184.2101,-459.7307 174.6499,-455.1642 179.2757,-464.6958 184.2101,-459.7307"></polygon>
</g><g id="node8" class="node">
<title>cell_type_2</title>
<g id="a_node8">
<ellipse fill="#d3d247" stroke="#000000" cx="190" cy="-516" rx="44.0377" ry="18"></ellipse>
<text text-anchor="middle" x="190" y="-511.8" font-family="Times,serif" font-size="14.00" fill="#000000">cell.type</text>
</g>
</g><g id="edge17" class="edge">
<title>stored_center_2-&gt;PersistentMotion_2_1</title>
<path fill="none" stroke="#112c5f" stroke-width="2" d="M237.8974,-375.4967C226.1083,-386.3664 209.4846,-400.5006 194.4768,-412.478"></path>
<polygon fill="#112c5f" stroke="#112c5f" stroke-width="2" points="192.0407,-409.9413 186.3464,-418.8758 196.3695,-415.4424 192.0407,-409.9413"></polygon>
</g><!-- stored_direction_2&#45;&gt;PersistentMotion_2_1 -->
<g id="edge18" class="edge">
<title>stored_direction_2-&gt;PersistentMotion_2_1</title>
<path fill="none" stroke="#112c5f" stroke-width="2" d="M117.1504,-375.4102C126.1248,-385.6306 136.5017,-398.7592 144.7848,-410.2675"></path>
<polygon fill="#112c5f" stroke="#112c5f" stroke-width="2" points="142.0601,-412.4792 150.6528,-418.6772 147.8008,-408.4735 142.0601,-412.4792"></polygon>
</g>
<!-- tmemory_2 -->
<g id="node12" class="node">
<title>tmemory_2</title>
<g id="a_node12">
<ellipse fill="#d3d247" stroke="#000000" cx="82" cy="-516" rx="45.806" ry="18"></ellipse>
<text text-anchor="middle" x="82" y="-511.8" font-family="Times,serif" font-size="14.00" fill="#000000">tmemory</text>
</g>
</g>
<!-- tmemory_2&#45;&gt;PersistentMotion_2_1 -->
<g id="edge20" class="edge">
<title>tmemory_2-&gt;PersistentMotion_2_1</title>
<path fill="none" stroke="#112c5f" stroke-width="2" d="M98.7079,-498.8582C109.0123,-488.2861 122.4223,-474.5278 133.9782,-462.6717"></path>
<polygon fill="#112c5f" stroke="#112c5f" stroke-width="2" points="136.7796,-464.812 141.2531,-455.2079 131.7668,-459.9261 136.7796,-464.812"></polygon>
</g>
<!-- theta_last_2&#45;&gt;System_6_1 -->
<g id="edge19" class="edge">
<title>theta_last_2-&gt;System_6_1</title>
<path fill="none" stroke="#112c5f" stroke-width="2" d="M275.7168,-182.8582C270.2645,-174.5749 263.5248,-164.3358 257.1086,-154.588"></path>
<polygon fill="#112c5f" stroke="#112c5f" stroke-width="2" points="260.0155,-152.6385 251.5939,-146.2099 254.1685,-156.4872 260.0155,-152.6385"></polygon>
</g>
<!-- theta_turns_2 -->
<g id="node14" class="node">
<title style="">theta_turns_2</title>
<g id="a_node14">
<ellipse fill="#d3d247" stroke="#000000" cx="235" cy="-42" rx="39.3836" ry="18" style=""></ellipse>
<text text-anchor="middle" x="235" y="-37.8" font-family="Times,serif" font-size="14.00" fill="#000000" style="">θ.turns</text>
</g>
</g>
<!-- System_6_1&#45;&gt;theta_turns_2 -->
<g id="edge9" class="edge">
<title style="">System_6_1-&gt;theta_turns_2</title>
<path fill="none" stroke="#8f100d" stroke-width="3" d="M235,-95.5691C235,-87.5402 235,-78.6193 235,-70.397"></path>
<polygon fill="#8f100d" stroke="#8f100d" stroke-width="3" points="238.5001,-70.1242 235,-60.1242 231.5001,-70.1242 238.5001,-70.1242"></polygon>
</g>
</g>
</svg>